%eval_id interface    sensonly_SA         colWTA sensorySA_update         obj_fn 
1            NO_ID              0              0              0             -9 
2            NO_ID              1              0              0             -9 
3            NO_ID              1              1              0             -9 
4            NO_ID              1              0              1            -29 
5            NO_ID              0              1              0             -9 
6            NO_ID              0              1              1             -9 
7            NO_ID              0              0              1             -9 
8            NO_ID              1              1              1           -576 
